DMSP 5D-2 F14 (USA 131) 
1 24753U 97012A   19053.91164317  .00000010  00000-0  28446-4 0  9999
2 24753  99.0323  59.2397 0009573 123.9539 236.2546 14.15822900130217
NOAA 15                 
1 25338U 98030A   19053.84529445  .00000006  00000-0  21109-4 0  9993
2 25338  98.7568  75.2622 0009906 214.8007 145.2526 14.25895675 80483
DMSP 5D-3 F15 (USA 147) 
1 25991U 99067A   19053.90144295 -.00000108  00000-0 -31623-4 0  9999
2 25991  98.9025  18.4115 0010516  32.6469 349.1123 14.16537516992387
METEOSAT-8 (MSG-1)      
1 27509U 02040B   19054.02925696  .00000119  00000-0  00000+0 0  9997
2 27509   5.8942  56.0374 0002114 308.6882 199.7934  1.00274730 60463
DMSP 5D-3 F16 (USA 172) 
1 28054U 03048A   19053.93431722 -.00000108  00000-0 -34094-4 0  9998
2 28054  98.8525  31.2361 0008011 140.2819 242.0247 14.13699187791893
NOAA 18                 
1 28654U 05018A   19053.88404656  .00000036  00000-0  44741-4 0  9991
2 28654  99.1134  99.0252 0014994 141.0812 219.1441 14.12405598709079
METEOSAT-9 (MSG-2)      
1 28912U 05049B   19053.80628191 -.00000003  00000-0  00000-0 0  9997
2 28912   3.4290  71.4806 0000892 319.3198  55.3058  1.00266159 48256
HIMAWARI-7 (MTSAT-2)    
1 28937U 06004A   19053.87920381 -.00000265  00000-0  00000+0 0  9998
2 28937   0.0747 288.3491 0003440  49.6960 275.9344  1.00271496 47565
FORMOSAT-3 FM6          
1 29047U 06011A   19053.31823326 -.00000026  00000-0  60085-5 0  9999
2 29047  71.9803  11.9387 0050383 174.3153 185.8566 14.28665287672625
FORMOSAT-3 FM1          
1 29048U 06011B   19053.04334841  .00000038  00000-0  31346-4 0  9998
2 29048  71.9659 283.9757 0042654 130.7372 229.7480 14.28614757675057
FORMOSAT-3 FM5          
1 29049U 06011C   19054.19216955  .00000035  00000-0  29934-4 0  9998
2 29049  72.0193  90.5577 0034363 161.8515 198.3857 14.28698243671009
FORMOSAT-3 FM3          
1 29050U 06011D   19054.07501038  .00000083  00000-0  27805-4 0  9994
2 29050  72.0150 285.9268 0048394 119.0882 241.5129 14.58765436686373
FORMOSAT-3 FM4          
1 29051U 06011E   19053.43167841  .00000053  00000-0  36604-4 0  9998
2 29051  72.0076 355.0653 0066965  35.2845 325.2696 14.28724398673486
FORMOSAT-3 FM2          
1 29052U 06011F   19053.95492280  .00000065  00000-0  41471-4 0  9995
2 29052  72.0335  66.7713 0038309 121.1639 239.3263 14.28823643671065
GOES 13                 
1 29155U 06018A   19053.50631969 -.00000305  00000-0  00000+0 0  9992
2 29155   0.4004 100.7824 0009065 315.1804 217.9017  1.00258479 46728
METOP-A                 
1 29499U 06044A   19053.95199074 -.00000017  00000-0  11646-4 0  9990
2 29499  98.5918 110.3337 0001327 142.4075 197.6178 14.21542695640434
DMSP 5D-3 F17 (USA 191) 
1 29522U 06050A   19053.95163301 -.00000007  00000-0  19332-4 0  9997
2 29522  98.8274  71.9135 0011201 103.5171 256.7251 14.14001256634802
FENGYUN 3A              
1 32958U 08026A   19054.04701117  .00000031  00000-0  33814-4 0  9990
2 32958  98.3793  60.5802 0008616 295.7346  64.2943 14.19732307556715
FENGYUN 2E              
1 33463U 08066A   19052.74238177 -.00000225  00000-0  00000-0 0  9995
2 33463   3.3650  69.2682 0004882 261.7900 174.3106  1.00273699 37298
NOAA 19                 
1 33591U 09005A   19053.93130359  .00000009  00000-0  30377-4 0  9999
2 33591  99.1717  42.3029 0013751 347.2552  12.8269 14.12335610517302
GOES 14                 
1 35491U 09033A   19053.49759608 -.00000116  00000-0  00000+0 0  9991
2 35491   0.0219 117.0630 0008985 127.0000 342.8474  1.00270626 35367
METEOR-M 1              
1 35865U 09049A   19054.00682495  .00000006  00000-0  21389-4 0  9995
2 35865  98.4100  57.4562 0003085 132.9762 227.1676 14.22184892489638
DMSP 5D-3 F18 (USA 210) 
1 35951U 09057A   19053.94579566  .00000009  00000-0  27386-4 0  9992
2 35951  98.6176  55.9068 0010142 303.8270  56.1937 14.13175493255816
GOES 15                 
1 36411U 10008A   19053.70818361  .00000033  00000-0  00000-0 0  9992
2 36411   0.0480 285.9095 0002678 344.5261   8.5107  1.00267198 32881
COMS 1                  
1 36744U 10032A   19053.83114416 -.00000367  00000-0  00000-0 0  9993
2 36744   0.0105 138.1586 0000650 237.0680 204.5458  1.00271599 24302
FENGYUN 3B              
1 37214U 10059A   19054.11333997 -.00000015  00000-0  15439-4 0  9990
2 37214  98.9847  25.0833 0016720 185.4226 174.6768 14.15907212429702
SUOMI NPP               
1 37849U 11061A   19053.90544701  .00000000  00000-0  20797-4 0  9997
2 37849  98.7263 353.7209 0001015 115.8737 286.1943 14.19557637379455
FENGYUN 2F              
1 38049U 12002A   19051.88943410 -.00000378  00000-0  00000-0 0  9991
2 38049   0.9859  80.2680 0000961  27.1406 115.0403  1.00262839 26088
METEOSAT-10 (MSG-3)     
1 38552U 12035B   19053.80741598  .00000038  00000-0  00000-0 0  9995
2 38552   0.9895  10.2941 0000744  22.5446  59.4065  1.00268835 24100
METOP-B                 
1 38771U 12049A   19053.93498844 -.00000006  00000-0  17542-4 0  9999
2 38771  98.7199 114.7919 0000268  34.2992 329.5295 14.21481647333763
FENGYUN 3C              
1 39260U 13052A   19054.08118785 -.00000010  00000-0  16333-4 0  9990
2 39260  98.6203 116.8207 0011558 149.8131 210.3717 14.15861080280647
METEOR-M 2              
1 40069U 14037A   19054.14427961 -.00000007  00000-0  16494-4 0  9993
2 40069  98.5687 103.1110 0004484 227.7934 132.2847 14.20659271240016
HIMAWARI-8              
1 40267U 14060A   19053.87782201 -.00000298  00000-0  00000-0 0  9993
2 40267   0.0194 108.9652 0000816 253.7152 246.4720  1.00270978 15977
FENGYUN 2G              
1 40367U 14090A   19051.88716597 -.00000325  00000-0  00000-0 0  9992
2 40367   0.9688 104.1894 0002455 288.9859 176.4776  1.00272069 15231
METEOSAT-11 (MSG-4)     
1 40732U 15034A   19053.80558403 -.00000025  00000-0  00000-0 0  9998
2 40732   0.9501 226.3634 0001198  77.7527 138.3924  1.00265000 13258
ELEKTRO-L 2             
1 41105U 15074A   19053.82076308 -.00000119  00000-0  00000-0 0  9992
2 41105   0.1039 143.6978 0001620 218.3285 161.8942  1.00271220 11730
HIMAWARI-9              
1 41836U 16064A   19053.97717712 -.00000297  00000-0  00000+0 0  9996
2 41836   0.0436 280.9167 0000909  71.8476 292.3070  1.00272583  8516
GOES 16                 
1 41866U 16071A   19053.79049222 -.00000270  00000-0  00000-0 0  9993
2 41866   0.0440 280.3932 0000757  98.3090 343.0375  1.00271131  8324
FENGYUN 4A              
1 41882U 16077A   19053.88269450 -.00000353  00000-0  00000-0 0  9996
2 41882   0.0933  87.3877 0003709  18.0400 109.4750  1.00274347  8194
CYGFM05                 
1 41884U 16078A   19053.71834843  .00000322  00000-0  18954-4 0  9991
2 41884  34.9558 165.4396 0015316  72.0665 288.1714 15.14312736121184
CYGFM04                 
1 41885U 16078B   19053.65248280  .00000318  00000-0  18444-4 0  9998
2 41885  34.9491 161.6301 0013611  77.3053 282.9179 15.14818823121219
CYGFM02                 
1 41886U 16078C   19053.71151256  .00000326  00000-0  18894-4 0  9990
2 41886  34.9582 162.6666 0014400  75.1747 285.0559 15.14817929121211
CYGFM01                 
1 41887U 16078D   19053.69435732  .00000300  00000-0  17831-4 0  9994
2 41887  34.9525 165.9976 0015730  73.2324 287.0112 15.14132149121172
CYGFM08                 
1 41888U 16078E   19053.68496684  .00000310  00000-0  18208-4 0  9997
2 41888  34.9496 163.8374 0014872  76.8903 283.3467 15.14537594121183
CYGFM06                 
1 41889U 16078F   19053.68772089  .00000319  00000-0  18556-4 0  9999
2 41889  34.9577 161.4842 0013312  74.7128 285.5054 15.14810551121219
CYGFM07                 
1 41890U 16078G   19053.66613757  .00000317  00000-0  18432-4 0  9996
2 41890  34.9515 160.9362 0013060  76.8708 283.3460 15.14811095121212
CYGFM03                 
1 41891U 16078H   19053.66099099  .00000324  00000-0  18815-4 0  9997
2 41891  34.9548 161.0878 0012553  75.9604 284.2503 15.14811609121213
FENGYUN 3D              
1 43010U 17072A   19054.07624804 -.00000017  00000-0  12376-4 0  9997
2 43010  98.7036 355.2370 0002329  48.4789 311.6589 14.19714721 66039
NOAA 20                 
1 43013U 17073A   19053.86218842  .00000001  00000-0  21213-4 0  9990
2 43013  98.7519 353.7865 0000692  92.0093 268.1162 14.19539722 65470
GOES 17                 
1 43226U 18022A   19053.70643889  .00000075  00000-0  00000-0 0  9995
2 43226   0.0274  73.8980 0003519 299.7178 255.7873  1.00270353  3627
FENGYUN 2H              
1 43491U 18050A   19054.10855443 -.00000150  00000-0  00000+0 0  9990
2 43491   1.7715 283.2821 0001936 264.6227  82.9847  1.00272476  2726
METOP-C                 
1 43689U 18087A   19053.76986773 -.00000044  00000-0  00000-0 0  9994
2 43689  98.7200 114.9157 0001909 320.9748  39.1291 14.21479193 15303
GEO-KOMPSAT-2A          
1 43823U 18100A   19053.97473451 -.00000366  00000-0  00000+0 0  9993
2 43823   0.0086 146.9323 0002004 262.6786 222.1372  1.00269528   874
